column	row	name
2	5	C002R005
2	10	C002R010
2	22	C002R022
2	17	C002R017
2	2	C002R002
2	28	C002R028
2	24	C002R024
2	4	C002R004
2	3	C002R003
2	18	C002R018
2	16	C002R016
2	20	C002R020
2	13	C002R013
2	9	C002R009
2	14	C002R014
2	11	C002R011
2	19	C002R019
2	1	C002R001
2	12	C002R012
2	8	C002R008
2	6	C002R006
2	21	C002R021
2	7	C002R007
2	15	C002R015
2	30	C002R030
2	23	C002R023
2	25	C002R025
2	33	C002R033
3	10	C003R010
2	27	C002R027
2	36	C002R036
2	35	C002R035
2	32	C002R032
2	41	C002R041
3	4	C003R004
3	6	C003R006
3	2	C003R002
2	26	C002R026
2	29	C002R029
2	34	C002R034
2	38	C002R038
3	3	C003R003
2	39	C002R039
2	40	C002R040
2	31	C002R031
3	7	C003R007
3	8	C003R008
3	1	C003R001
3	5	C003R005
2	37	C002R037
3	20	C003R020
3	11	C003R011
3	19	C003R019
3	17	C003R017
3	14	C003R014
3	12	C003R012
3	9	C003R009
3	18	C003R018
3	13	C003R013
3	22	C003R022
3	16	C003R016
3	15	C003R015
3	28	C003R028
3	31	C003R031
3	25	C003R025
3	26	C003R026
3	34	C003R034
3	21	C003R021
3	24	C003R024
3	27	C003R027
3	36	C003R036
3	30	C003R030
3	40	C003R040
3	23	C003R023
3	32	C003R032
3	38	C003R038
3	37	C003R037
3	33	C003R033
4	6	C004R006
3	41	C003R041
4	2	C004R002
3	29	C003R029
3	35	C003R035
4	5	C004R005
4	11	C004R011
3	39	C003R039
4	14	C004R014
4	9	C004R009
4	4	C004R004
4	3	C004R003
4	12	C004R012
4	10	C004R010
4	13	C004R013
4	8	C004R008
4	1	C004R001
4	18	C004R018
4	19	C004R019
4	15	C004R015
4	7	C004R007
4	16	C004R016
4	29	C004R029
4	20	C004R020
4	22	C004R022
4	17	C004R017
4	32	C004R032
4	31	C004R031
4	25	C004R025
4	24	C004R024
4	23	C004R023
4	37	C004R037
4	36	C004R036
4	21	C004R021
4	28	C004R028
4	34	C004R034
4	27	C004R027
4	35	C004R035
4	26	C004R026
4	40	C004R040
4	33	C004R033
4	30	C004R030
5	2	C005R002
5	3	C005R003
4	38	C004R038
5	7	C005R007
4	39	C004R039
5	4	C005R004
5	1	C005R001
4	41	C004R041
5	13	C005R013
5	11	C005R011
5	9	C005R009
5	17	C005R017
5	5	C005R005
5	6	C005R006
5	15	C005R015
5	10	C005R010
5	21	C005R021
5	14	C005R014
5	16	C005R016
5	25	C005R025
5	18	C005R018
5	8	C005R008
5	29	C005R029
5	20	C005R020
5	12	C005R012
5	28	C005R028
5	22	C005R022
5	27	C005R027
5	19	C005R019
5	24	C005R024
5	23	C005R023
5	32	C005R032
5	39	C005R039
6	2	C006R002
5	33	C005R033
5	30	C005R030
5	26	C005R026
6	13	C006R013
5	37	C005R037
5	31	C005R031
6	10	C006R010
5	36	C005R036
5	34	C005R034
6	1	C006R001
5	35	C005R035
6	7	C006R007
6	8	C006R008
5	40	C005R040
6	3	C006R003
5	41	C005R041
6	11	C006R011
6	14	C006R014
5	38	C005R038
6	9	C006R009
6	6	C006R006
6	5	C006R005
6	4	C006R004
6	22	C006R022
6	15	C006R015
6	17	C006R017
6	12	C006R012
6	21	C006R021
6	16	C006R016
6	20	C006R020
6	18	C006R018
6	23	C006R023
6	28	C006R028
6	25	C006R025
6	27	C006R027
6	24	C006R024
6	19	C006R019
6	34	C006R034
6	32	C006R032
6	26	C006R026
6	31	C006R031
6	29	C006R029
7	6	C007R006
7	9	C007R009
6	30	C006R030
6	41	C006R041
6	39	C006R039
6	40	C006R040
6	36	C006R036
6	33	C006R033
6	38	C006R038
7	7	C007R007
7	8	C007R008
7	4	C007R004
7	3	C007R003
7	1	C007R001
6	35	C006R035
7	20	C007R020
7	16	C007R016
7	13	C007R013
6	37	C006R037
7	2	C007R002
7	11	C007R011
7	21	C007R021
7	10	C007R010
7	5	C007R005
7	24	C007R024
7	14	C007R014
7	15	C007R015
7	12	C007R012
7	18	C007R018
7	29	C007R029
7	23	C007R023
7	31	C007R031
7	27	C007R027
7	17	C007R017
7	25	C007R025
7	33	C007R033
7	19	C007R019
7	26	C007R026
7	22	C007R022
7	28	C007R028
7	39	C007R039
7	38	C007R038
8	2	C008R002
7	36	C007R036
7	35	C007R035
7	34	C007R034
7	32	C007R032
7	30	C007R030
7	41	C007R041
8	9	C008R009
7	40	C007R040
7	37	C007R037
8	1	C008R001
8	16	C008R016
8	6	C008R006
8	3	C008R003
8	13	C008R013
8	22	C008R022
8	5	C008R005
8	7	C008R007
8	17	C008R017
8	8	C008R008
8	21	C008R021
8	14	C008R014
8	20	C008R020
8	4	C008R004
8	10	C008R010
8	18	C008R018
8	11	C008R011
8	15	C008R015
8	19	C008R019
8	24	C008R024
8	12	C008R012
8	25	C008R025
8	33	C008R033
8	23	C008R023
8	30	C008R030
8	31	C008R031
8	32	C008R032
8	26	C008R026
8	28	C008R028
8	41	C008R041
8	27	C008R027
9	4	C009R004
8	29	C008R029
8	35	C008R035
8	38	C008R038
8	36	C008R036
8	37	C008R037
8	34	C008R034
9	5	C009R005
9	19	C009R019
9	10	C009R010
8	40	C008R040
9	11	C009R011
9	7	C009R007
9	3	C009R003
9	2	C009R002
9	15	C009R015
9	20	C009R020
9	13	C009R013
9	6	C009R006
8	39	C008R039
9	12	C009R012
9	23	C009R023
9	9	C009R009
9	16	C009R016
9	29	C009R029
9	8	C009R008
9	28	C009R028
9	25	C009R025
9	17	C009R017
9	21	C009R021
9	22	C009R022
9	24	C009R024
9	31	C009R031
9	18	C009R018
9	35	C009R035
9	37	C009R037
10	5	C010R005
9	27	C009R027
9	33	C009R033
9	39	C009R039
9	26	C009R026
9	30	C009R030
9	32	C009R032
9	40	C009R040
10	2	C010R002
9	41	C009R041
9	34	C009R034
10	10	C010R010
10	8	C010R008
10	3	C010R003
10	16	C010R016
9	38	C009R038
10	4	C010R004
10	1	C010R001
10	7	C010R007
10	6	C010R006
10	9	C010R009
10	11	C010R011
10	15	C010R015
10	13	C010R013
10	19	C010R019
10	22	C010R022
10	14	C010R014
10	31	C010R031
10	17	C010R017
10	25	C010R025
10	21	C010R021
10	18	C010R018
10	35	C010R035
10	20	C010R020
10	24	C010R024
10	33	C010R033
10	23	C010R023
10	12	C010R012
10	34	C010R034
10	27	C010R027
10	26	C010R026
10	30	C010R030
10	39	C010R039
10	32	C010R032
10	40	C010R040
10	28	C010R028
10	36	C010R036
10	37	C010R037
11	2	C011R002
10	38	C010R038
11	1	C011R001
11	5	C011R005
10	29	C010R029
11	10	C011R010
11	4	C011R004
11	9	C011R009
10	41	C010R041
11	8	C011R008
11	17	C011R017
11	6	C011R006
11	3	C011R003
11	23	C011R023
11	7	C011R007
11	16	C011R016
11	24	C011R024
11	21	C011R021
11	15	C011R015
11	26	C011R026
11	14	C011R014
11	22	C011R022
11	11	C011R011
11	12	C011R012
11	28	C011R028
11	13	C011R013
11	29	C011R029
11	20	C011R020
11	18	C011R018
11	19	C011R019
11	31	C011R031
11	30	C011R030
11	25	C011R025
11	27	C011R027
11	35	C011R035
11	39	C011R039
11	34	C011R034
11	33	C011R033
11	32	C011R032
11	41	C011R041
11	36	C011R036
12	5	C012R005
12	10	C012R010
12	4	C012R004
12	7	C012R007
12	1	C012R001
11	38	C011R038
11	37	C011R037
11	40	C011R040
12	9	C012R009
12	26	C012R026
12	3	C012R003
12	2	C012R002
12	6	C012R006
12	11	C012R011
12	15	C012R015
12	16	C012R016
12	8	C012R008
12	18	C012R018
12	14	C012R014
12	21	C012R021
12	12	C012R012
12	28	C012R028
12	24	C012R024
12	17	C012R017
12	20	C012R020
12	32	C012R032
12	13	C012R013
12	22	C012R022
12	19	C012R019
12	23	C012R023
12	27	C012R027
12	30	C012R030
12	31	C012R031
12	29	C012R029
12	35	C012R035
12	25	C012R025
12	33	C012R033
12	36	C012R036
12	37	C012R037
12	39	C012R039
12	34	C012R034
12	40	C012R040
13	8	C013R008
12	41	C012R041
12	38	C012R038
13	11	C013R011
13	7	C013R007
13	12	C013R012
13	10	C013R010
13	2	C013R002
13	1	C013R001
13	6	C013R006
13	13	C013R013
13	4	C013R004
13	17	C013R017
13	15	C013R015
13	3	C013R003
13	9	C013R009
13	18	C013R018
13	19	C013R019
13	5	C013R005
13	21	C013R021
13	27	C013R027
13	23	C013R023
13	31	C013R031
13	32	C013R032
13	34	C013R034
13	22	C013R022
13	25	C013R025
13	24	C013R024
13	33	C013R033
13	28	C013R028
13	37	C013R037
13	20	C013R020
13	29	C013R029
13	14	C013R014
13	26	C013R026
13	35	C013R035
14	1	C014R001
13	16	C013R016
13	38	C013R038
13	30	C013R030
13	36	C013R036
14	4	C014R004
14	7	C014R007
13	40	C013R040
13	41	C013R041
13	39	C013R039
14	12	C014R012
14	3	C014R003
14	9	C014R009
14	10	C014R010
14	14	C014R014
14	8	C014R008
14	2	C014R002
14	15	C014R015
14	17	C014R017
14	5	C014R005
14	20	C014R020
14	11	C014R011
14	6	C014R006
14	23	C014R023
14	25	C014R025
14	16	C014R016
14	41	C014R041
14	13	C014R013
14	26	C014R026
14	22	C014R022
14	27	C014R027
14	32	C014R032
14	30	C014R030
14	18	C014R018
14	24	C014R024
14	34	C014R034
14	19	C014R019
14	38	C014R038
14	28	C014R028
14	21	C014R021
14	31	C014R031
14	29	C014R029
14	40	C014R040
14	36	C014R036
14	33	C014R033
14	35	C014R035
14	37	C014R037
14	39	C014R039
