#category,tn,normal;tumor,,,
#category,var,low-var;high-var,,,
,,,,,
>name,category,NORMAL:min,NORMAL:max,SEVERE:min,SEVERE:max
High confidence somatic SNP count,,0,10000,0,100000
Count of high confidence somatic SNP with read support in the normal > 2 and > 5%,,0,300
