Id,Row,Column,Barcode number,Tag,OrigTag,% dUTP,GE,Fragmentation,Well
1,A,1,69,AACAAACAGC,AACAAA,4,0.1,Covaris,1
3,A,3,72,AACAGAGACT,AACAGA,4,0.1,Covaris,3
5,A,5,75,AACAGATTTC,AACAGA,4,0.1,Covaris,5
7,A,7,76,AACAGCATAG,AACAGC,4,0.1,Covaris,7
9,A,9,77,AACATTCCTC,AACATT,6,0.1,Covaris,9
11,A,11,81,AACCTAGTAG,AACCTA,6,0.1,Covaris,11
13,A,13,84,AACCTCAACT,AACCTC,6,0.1,Covaris,13
15,A,15,89,AACTGAAATC,AACTGA,6,0.1,Covaris,15
17,A,17,90,AACTGTGTAG,AACTGT,8,0.1,Covaris,17
19,A,19,117,AACTTGCACC,AACTTG,8,0.1,Covaris,19
21,A,21,121,AAGAAGTCAC,AAGAAG,8,0.1,Covaris,21
23,A,23,123,AAGCCTTGAC,AAGCCT,8,0.1,Covaris,23
49,C,1,127,AAGGAATGTA,AAGGAA,4,0.1,Covaris,49
51,C,3,141,AAGGATTGAT,AAGGAT,4,0.1,Covaris,51
53,C,5,153,AAGGTACATA,AAGGTA,4,0.1,Covaris,53
55,C,7,158,AAGTGCTGGT,AAGTGC,4,0.1,Covaris,55
57,C,9,164,AATACTGACC,AATACT,6,0.1,Covaris,57
59,C,11,179,AATAGGAGGT,AATAGG,6,0.1,Covaris,59
61,C,13,199,AATAGTAGTG,AATAGT,6,0.1,Covaris,61
63,C,15,203,AATCACAGTC,AATCAC,6,0.1,Covaris,63
65,C,17,204,AATGAGCACC,AATGAG,8,0.1,Covaris,65
67,C,19,207,AATGCCAGTT,AATGCC,8,0.1,Covaris,67
69,C,21,214,AATGGAATAC,AATGGA,8,0.1,Covaris,69
71,C,23,215,AATGGCATCA,AATGGC,8,0.1,Covaris,71
97,E,1,226,AATGTGTGCC,AATGTG,4,0.1,Covaris,97
99,E,3,228,AATTACACAC,AATTAC,4,0.1,Covaris,99
101,E,5,231,AATTGTCAAG,AATTGT,4,0.1,Covaris,101
103,E,7,232,ACAAAGTCTC,ACAAAG,4,0.1,Covaris,103
105,E,9,239,ACAAATATCC,ACAAAT,6,0.1,Covaris,105
107,E,11,242,ACAACAAAGC,ACAACA,6,0.1,Covaris,107
109,E,13,252,ACACCCTGCT,ACACCC,6,0.1,Covaris,109
111,E,15,259,ACACTCCCAT,ACACTC,6,0.1,Covaris,111
113,E,17,260,ACAGAATGAA,ACAGAA,8,0.1,Covaris,113
115,E,19,261,ACAGTCCACC,ACAGTC,8,0.1,Covaris,115
117,E,21,269,ACAGTGCAGG,ACAGTG,8,0.1,Covaris,117
119,E,23,270,ACAGTTCATT,ACAGTT,8,0.1,Covaris,119
145,G,1,280,ACATATTACC,ACATAT,4,0.2,Covaris,145
147,G,3,285,ACATGCCTGT,ACATGC,4,0.2,Covaris,147
149,G,5,289,ACATTGACAC,ACATTG,4,0.2,Covaris,149
151,G,7,296,ACCAATCTAA,ACCAAT,4,0.2,Covaris,151
153,G,9,298,ACCATACAAT,ACCATA,6,0.2,Covaris,153
155,G,11,299,ACCATTCATA,ACCATT,6,0.2,Covaris,155
157,G,13,306,ACCCTAACAT,ACCCTA,6,0.2,Covaris,157
159,G,15,310,ACCCTGATTG,ACCCTG,6,0.2,Covaris,159
161,G,17,314,ACCCTGTTCA,ACCCTG,8,0.2,Covaris,161
163,G,19,319,ACCCTTATGT,ACCCTT,8,0.2,Covaris,163
165,G,21,322,ACCTGAATGT,ACCTGA,8,0.2,Covaris,165
167,G,23,328,ACTACTTAGC,ACTACT,8,0.2,Covaris,167
193,I,1,331,ACTATGAAGC,ACTATG,4,0.2,Covaris,193
195,I,3,347,ACTCCAAGTC,ACTCCA,4,0.2,Covaris,195
197,I,5,348,ACTGAAAGTT,ACTGAA,4,0.2,Covaris,197
199,I,7,349,ACTGAGCCCA,ACTGAG,4,0.2,Covaris,199
201,I,9,351,ACTGATAGAA,ACTGAT,6,0.2,Covaris,201
203,I,11,372,ACTGCACAGG,ACTGCA,6,0.2,Covaris,203
205,I,13,461,ACTTCCACCA,ACTTCC,6,0.2,Covaris,205
207,I,15,466,AGAAAGCTAG,AGAAAG,6,0.2,Covaris,207
209,I,17,471,AGAAAGTGTG,AGAAAG,8,0.2,Covaris,209
211,I,19,479,AGAACAGGTC,AGAACA,8,0.2,Covaris,211
213,I,21,480,AGAACTCACA,AGAACT,8,0.2,Covaris,213
215,I,23,481,AGAGAGGACA,AGAGAG,8,0.2,Covaris,215
241,K,1,483,AGAGCTGTAG,AGAGCT,4,0.2,Covaris,241
243,K,3,493,AGGAACCACT,AGGAAC,4,0.2,Covaris,243
245,K,5,499,AGGAATCATC,AGGAAT,4,0.2,Covaris,245
247,K,7,508,AGGAGATCAC,AGGAGA,4,0.2,Covaris,247
249,K,9,509,AGGATTCTAC,AGGATT,6,0.2,Covaris,249
251,K,11,512,AGGATTTGTC,AGGATT,6,0.2,Covaris,251
253,K,13,513,AGGCAGGATT,AGGCAG,6,0.2,Covaris,253
255,K,15,544,AGGCAGTTCC,AGGCAG,6,0.2,Covaris,255
257,K,17,550,AGGCATACTC,AGGCAT,8,0.2,Covaris,257
259,K,19,630,AGGCATGAGG,AGGCAT,8,0.2,Covaris,259
261,K,21,632,AGGTATAGAC,AGGTAT,8,0.2,Covaris,261
263,K,23,636,AGGTGTAAGC,AGGTGT,8,0.2,Covaris,263
289,M,1,644,AGTCACTACC,AGTCAC,4,0.4,Covaris,289
291,M,3,645,AGTCATGTCC,AGTCAT,4,0.4,Covaris,291
293,M,5,648,AGTCCAGAGC,AGTCCA,4,0.4,Covaris,293
295,M,7,649,AGTCCCTCAC,AGTCCC,4,0.4,Covaris,295
297,M,9,650,AGTGAGATAC,AGTGAG,6,0.4,Covaris,297
299,M,11,651,AGTGCCTACT,AGTGCC,6,0.4,Covaris,299
301,M,13,684,AGTGCTTATC,AGTGCT,6,0.4,Covaris,301
303,M,15,689,AGTGGACACC,AGTGGA,6,0.4,Covaris,303
305,M,17,705,AGTGGAGGAT,AGTGGA,8,0.4,Covaris,305
307,M,19,707,AGTGGTGGTA,AGTGGT,8,0.4,Covaris,307
309,M,21,710,AGTGTAGCAA,AGTGTA,8,0.4,Covaris,309
311,M,23,712,AGTGTGAATC,AGTGTG,8,0.4,Covaris,311
337,O,1,732,AGTGTTGCTT,AGTGTT,4,0.4,Covaris,337
339,O,3,734,AGTTCACTCA,AGTTCA,4,0.4,Covaris,339
341,O,5,736,AGTTCCTGTC,AGTTCC,4,0.4,Covaris,341
343,O,7,737,AGTTCTTGCT,AGTTCT,4,0.4,Covaris,343
345,O,9,738,AGTTTACTGT,AGTTTA,6,0.4,Covaris,345
347,O,11,740,ATAAACACTC,ATAAAC,6,0.4,Covaris,347
349,O,13,741,ATACACCATC,ATACAC,6,0.4,Covaris,349
351,O,15,744,ATACATGGAC,ATACAT,6,0.4,Covaris,351
353,O,17,746,ATACCACTGT,ATACCA,8,0.4,Covaris,353
355,O,19,750,ATACCTCCAT,ATACCT,8,0.4,Covaris,355
357,O,21,752,ATACTACTCA,ATACTA,8,0.4,Covaris,357
359,O,23,754,ATACTCTGTC,ATACTC,8,0.4,Covaris,359
2,A,2,765,ATACTTTGCT,ATACTT,4,0.1,CoRE,2
4,A,4,770,ATAGAGAGCC,ATAGAG,4,0.1,CoRE,4
6,A,6,786,ATAGATCCAC,ATAGAT,4,0.1,CoRE,6
8,A,8,787,ATAGCAGGTA,ATAGCA,4,0.1,CoRE,8
10,A,10,788,ATATGATGCT,ATATGA,6,0.1,CoRE,10
12,A,12,790,ATATGTCTCA,ATATGT,6,0.1,CoRE,12
14,A,14,792,ATCAAACCTC,ATCAAA,6,0.1,CoRE,14
16,A,16,802,ATCACAGGTT,ATCACA,6,0.1,CoRE,16
18,A,18,804,ATCAGAGTCA,ATCAGA,8,0.1,CoRE,18
20,A,20,806,ATCCAGGCAA,ATCCAG,8,0.1,CoRE,20
22,A,22,809,ATCCTCATCA,ATCCTC,8,0.1,CoRE,22
24,A,24,810,ATCCTCTTTG,ATCCTC,8,0.1,CoRE,24
50,C,2,811,ATCTCAAGCC,ATCTCA,4,0.1,CoRE,50
52,C,4,812,ATGAGGCTAC,ATGAGG,4,0.1,CoRE,52
54,C,6,817,ATGAGGTGTC,ATGAGG,4,0.1,CoRE,54
56,C,8,831,ATGCCACAAC,ATGCCA,4,0.1,CoRE,56
58,C,10,835,ATGCCAGGCT,ATGCCA,6,0.1,CoRE,58
60,C,12,841,ATGGAACAAT,ATGGAA,6,0.1,CoRE,60
62,C,14,843,ATGGATCATA,ATGGAT,6,0.1,CoRE,62
64,C,16,844,ATGGTACTTT,ATGGTA,6,0.1,CoRE,64
66,C,18,846,ATGGTATGAT,ATGGTA,8,0.1,CoRE,66
68,C,20,853,ATGGTGCCAG,ATGGTG,8,0.1,CoRE,68
70,C,22,854,ATGGTTTGTA,ATGGTT,8,0.1,CoRE,70
72,C,24,863,ATGTAATTCC,ATGTAA,8,0.1,CoRE,72
98,E,2,865,ATGTCTGCCA,ATGTCT,4,0.1,CoRE,98
100,E,4,885,ATGTTGAAGC,ATGTTG,4,0.1,CoRE,100
102,E,6,901,ATTAGACACA,ATTAGA,4,0.1,CoRE,102
104,E,8,902,ATTAGTGGTC,ATTAGT,4,0.1,CoRE,104
106,E,10,911,ATTATAGCAC,ATTATA,6,0.1,CoRE,106
108,E,12,912,CAAATACCAT,CAAATA,6,0.1,CoRE,108
110,E,14,921,CAAATTCTGT,CAAATT,6,0.1,CoRE,110
112,E,16,924,CAATAGAGTG,CAATAG,6,0.1,CoRE,112
114,E,18,938,CAATAGTGCA,CAATAG,8,0.1,CoRE,114
116,E,20,939,CAATATAGGT,CAATAT,8,0.1,CoRE,116
118,E,22,940,CACAAGTATC,CACAAG,8,0.1,CoRE,118
120,E,24,943,CACACTATAC,CACACT,8,0.1,CoRE,120
146,G,2,945,CACCACTGAT,CACCAC,4,0.2,CoRE,146
148,G,4,951,CACCTCCAAT,CACCTC,4,0.2,CoRE,148
150,G,6,957,CACTACTCTT,CACTAC,4,0.2,CoRE,150
152,G,8,972,CACTCTTAAC,CACTCT,4,0.2,CoRE,152
154,G,10,975,CACTGAGGTT,CACTGA,6,0.2,CoRE,154
156,G,12,976,CAGAATTGAC,CAGAAT,6,0.2,CoRE,156
158,G,14,978,CAGAGTGCCA,CAGAGT,6,0.2,CoRE,158
160,G,16,1001,CAGATTCAAC,CAGATT,6,0.2,CoRE,160
162,G,18,1002,CAGATTGGCT,CAGATT,8,0.2,CoRE,162
164,G,20,1005,CAGCACTAGG,CAGCAC,8,0.2,CoRE,164
166,G,22,1019,CAGCCCATAT,CAGCCC,8,0.2,CoRE,166
168,G,24,1036,CAGCTTACAC,CAGCTT,8,0.2,CoRE,168
194,I,2,1040,CAGGAAATCA,CAGGAA,4,0.2,CoRE,194
196,I,4,1050,CAGGACATAC,CAGGAC,4,0.2,CoRE,196
198,I,6,1052,CAGGAGTCAT,CAGGAG,4,0.2,CoRE,198
200,I,8,1055,CAGTGAACAC,CAGTGA,4,0.2,CoRE,200
202,I,10,1058,CATAAGCACT,CATAAG,6,0.2,CoRE,202
204,I,12,1082,CATCACTTCC,CATCAC,6,0.2,CoRE,204
206,I,14,1083,CATCCTGCAC,CATCCT,6,0.2,CoRE,206
208,I,16,1084,CATGAGAAAC,CATGAG,6,0.2,CoRE,208
210,I,18,1095,CATGGACTCC,CATGGA,8,0.2,CoRE,210
212,I,20,1098,CATGGCTGTA,CATGGC,8,0.2,CoRE,212
214,I,22,1103,CATTATCCTT,CATTAT,8,0.2,CoRE,214
216,I,24,1108,CATTCTGGTC,CATTCT,8,0.2,CoRE,216
242,K,2,1117,CCAATAGGCA,CCAATA,4,0.2,CoRE,242
244,K,4,1142,CCAATTCATC,CCAATT,4,0.2,CoRE,244
246,K,6,1144,CCACTGTTCC,CCACTG,4,0.2,CoRE,246
248,K,8,1146,CCACTTACTC,CCACTT,4,0.2,CoRE,248
250,K,10,1149,CCACTTGAGG,CCACTT,6,0.2,CoRE,250
252,K,12,1150,CCAGAATTAG,CCAGAA,6,0.2,CoRE,252
254,K,14,1151,CCAGACATTC,CCAGAC,6,0.2,CoRE,254
256,K,16,1152,CCAGTAAACA,CCAGTA,6,0.2,CoRE,256
258,K,18,1154,CCATGAACTC,CCATGA,8,0.2,CoRE,258
260,K,20,1155,CCATGAGAGG,CCATGA,8,0.2,CoRE,260
262,K,22,1156,CCATTTAGAC,CCATTT,8,0.2,CoRE,262
264,K,24,1159,CCCAATATCA,CCCAAT,8,0.2,CoRE,264
290,M,2,1163,CCCTATTACA,CCCTAT,4,0.4,CoRE,290
292,M,4,1166,CCCTCATCTT,CCCTCA,4,0.4,CoRE,292
294,M,6,1167,CCCTTAGATC,CCCTTA,4,0.4,CoRE,294
296,M,8,1169,CCTATCCAAG,CCTATC,4,0.4,CoRE,296
298,M,10,1175,CCTCATTAGC,CCTCAT,6,0.4,CoRE,298
300,M,12,1184,CCTCTATCTC,CCTCTA,6,0.4,CoRE,300
302,M,14,1185,CCTCTCACAG,CCTCTC,6,0.4,CoRE,302
304,M,16,1188,CCTGATATAG,CCTGAT,6,0.4,CoRE,304
306,M,18,1190,CCTGTAGTAC,CCTGTA,8,0.4,CoRE,306
308,M,20,1197,CCTGTTTACA,CCTGTT,8,0.4,CoRE,308
310,M,22,1202,CCTTACCACA,CCTTAC,8,0.4,CoRE,310
312,M,24,1206,CCTTGTTCTC,CCTTGT,8,0.4,CoRE,312
338,O,2,1212,CCTTTATGAC,CCTTTA,4,0.4,CoRE,338
340,O,4,1213,CCTTTCAGTG,CCTTTC,4,0.4,CoRE,340
342,O,6,1215,CTAAATCCAT,CTAAAT,4,0.4,CoRE,342
344,O,8,1235,CTACAGGCAC,CTACAG,4,0.4,CoRE,344
346,O,10,1244,CTACCATCAG,CTACCA,6,0.4,CoRE,346
348,O,12,1253,CTACCCACTC,CTACCC,6,0.4,CoRE,348
350,O,14,1262,CTACTCATCC,CTACTC,6,0.4,CoRE,350
352,O,16,1265,CTAGACACTT,CTAGAC,6,0.4,CoRE,352
354,O,18,1276,CTAGAGGACT,CTAGAG,8,0.4,CoRE,354
356,O,20,1278,CTAGAGTTTC,CTAGAG,8,0.4,CoRE,356
358,O,22,1281,CTAGATACCC,CTAGAT,8,0.4,CoRE,358
360,O,24,1296,CTATCACTAG,CTATCA,8,0.4,CoRE,360
25,B,1,1297,CTATCATGTG,CTATCA,4,0.1,CoRE,25
27,B,3,1299,CTATCCAGAC,CTATCC,4,0.1,CoRE,27
29,B,5,1306,GAGACAGATC,GAGACA,4,0.1,CoRE,29
31,B,7,1314,GAGAGTCTTT,GAGAGT,4,0.1,CoRE,31
33,B,9,1315,GAGAGTTGAT,GAGAGT,6,0.1,CoRE,33
35,B,11,1316,GAGATGTTAG,GAGATG,6,0.1,CoRE,35
37,B,13,1318,GAGATTTCAA,GAGATT,6,0.1,CoRE,37
39,B,15,1319,GAGCATAGAA,GAGCAT,6,0.1,CoRE,39
41,B,17,1327,GAGTAAACAT,GAGTAA,8,0.1,CoRE,41
43,B,19,1334,GAGTATATGT,GAGTAT,8,0.1,CoRE,43
45,B,21,1335,GAGTCAAACT,GAGTCA,8,0.1,CoRE,45
47,B,23,1336,GATAACATCA,GATAAC,8,0.1,CoRE,47
73,D,1,1340,GATAACTTTG,GATAAC,4,0.1,CoRE,73
75,D,3,1346,GATAGGCACC,GATAGG,4,0.1,CoRE,75
77,D,5,1397,GATATGGCAA,GATATG,4,0.1,CoRE,77
79,D,7,1398,GATATTGTAG,GATATT,4,0.1,CoRE,79
81,D,9,1408,GATCCCTGTA,GATCCC,6,0.1,CoRE,81
83,D,11,1487,GATGAGAGGT,GATGAG,6,0.1,CoRE,83
85,D,13,1489,GATGATAGTG,GATGAT,6,0.1,CoRE,85
87,D,15,1492,GATGTTCACA,GATGTT,6,0.1,CoRE,87
89,D,17,1493,GATTACTACA,GATTAC,8,0.1,CoRE,89
91,D,19,1502,GATTATGTCA,GATTAT,8,0.1,CoRE,91
93,D,21,1503,GATTCCTCAA,GATTCC,8,0.1,CoRE,93
95,D,23,1509,GATTGATGGC,GATTGA,8,0.1,CoRE,95
121,F,1,1516,GATTTAGACT,GATTTA,4,0.1,CoRE,121
123,F,3,1521,GATTTCATAG,GATTTC,4,0.1,CoRE,123
125,F,5,1524,GCCATGCTAC,GCCATG,4,0.1,CoRE,125
127,F,7,1532,GCCATGTGTC,GCCATG,4,0.1,CoRE,127
129,F,9,1534,GCCCATGATT,GCCCAT,6,0.1,CoRE,129
131,F,11,1535,GCCCTCTAAT,GCCCTC,6,0.1,CoRE,131
133,F,13,1536,GCCTAGAGAC,GCCTAG,6,0.1,CoRE,133
135,F,15,1804,GCCTCTCAAC,GCCTCT,6,0.1,CoRE,135
137,F,17,1806,GGAATCAGTT,GGAATC,8,0.1,CoRE,137
139,F,19,1807,GGAATGCCAC,GGAATG,8,0.1,CoRE,139
141,F,21,1816,GGACACTCTT,GGACAC,8,0.1,CoRE,141
143,F,23,1818,GGACAGATTC,GGACAG,8,0.1,CoRE,143
169,H,1,1819,GGACTGAAAC,GGACTG,4,0.2,CoRE,169
171,H,3,1832,GGACTTGCAT,GGACTT,4,0.2,CoRE,171
173,H,5,1837,GGAGAATATA,GGAGAA,4,0.2,CoRE,173
175,H,7,1840,GGAGTATTAA,GGAGTA,4,0.2,CoRE,175
177,H,9,1841,GGAGTTGACC,GGAGTT,6,0.2,CoRE,177
179,H,11,1842,GGATACTGAT,GGATAC,6,0.2,CoRE,179
181,H,13,1851,GGATGAGCAT,GGATGA,6,0.2,CoRE,181
183,H,15,1852,GGCATGACCA,GGCATG,6,0.2,CoRE,183
185,H,17,1853,GGCTAGACAG,GGCTAG,8,0.2,CoRE,185
187,H,19,1854,GGTAATGGTA,GGTAAT,8,0.2,CoRE,187
189,H,21,1860,GGTACACCAC,GGTACA,8,0.2,CoRE,189
191,H,23,1863,GGTATATGCC,GGTATA,8,0.2,CoRE,191
217,J,1,2203,GGTATCCTTA,GGTATC,4,0.2,CoRE,217
219,J,3,2209,GGTCACACAA,GGTCAC,4,0.2,CoRE,219
221,J,5,2210,GGTCCTGTTG,GGTCCT,4,0.2,CoRE,221
223,J,7,2214,GGTCTGGTCA,GGTCTG,4,0.2,CoRE,223
225,J,9,2215,GGTGATAATA,GGTGAT,6,0.2,CoRE,225
227,J,11,2219,GGTGTGACAG,GGTGTG,6,0.2,CoRE,227
229,J,13,2221,GGTTACAGTA,GGTTAC,6,0.2,CoRE,229
231,J,15,2224,GGTTAGTGGC,GGTTAG,6,0.2,CoRE,231
233,J,17,2234,GGTTTGCAGC,GGTTTG,8,0.2,CoRE,233
235,J,19,2242,GTAACCTTGT,GTAACC,8,0.2,CoRE,235
237,J,21,2244,GTAAGTCCAC,GTAAGT,8,0.2,CoRE,237
239,J,23,2246,GTAATTGACA,GTAATT,8,0.2,CoRE,239
265,L,1,2248,GTACACCCAG,GTACAC,4,0.4,CoRE,265
267,L,3,2252,GTACATAGGC,GTACAT,4,0.4,CoRE,267
269,L,5,2254,GTAGGCACTC,GTAGGC,4,0.4,CoRE,269
271,L,7,2256,GTAGTGCCAA,GTAGTG,4,0.4,CoRE,271
273,L,9,2261,GTAGTGTGGT,GTAGTG,6,0.4,CoRE,273
275,L,11,2266,GTAGTTTGTG,GTAGTT,6,0.4,CoRE,275
277,L,13,2267,GTATTGGTGT,GTATTG,6,0.4,CoRE,277
279,L,15,2269,GTCAAACAAG,GTCAAA,6,0.4,CoRE,279
281,L,17,2272,GTCAGGTTTA,GTCAGG,8,0.4,CoRE,281
283,L,19,2284,GTCATACTTG,GTCATA,8,0.4,CoRE,283
285,L,21,2285,GTCATCAGTC,GTCATC,8,0.4,CoRE,285
287,L,23,2292,GTCATGCCAT,GTCATG,8,0.4,CoRE,287
313,N,1,2293,GTCCACTCTC,GTCCAC,4,0.4,CoRE,313
315,N,3,2297,GTCCAGATTT,GTCCAG,4,0.4,CoRE,315
317,N,5,2299,GTCCCATATA,GTCCCA,4,0.4,CoRE,317
319,N,7,2301,GTCCTGAAAT,GTCCTG,4,0.4,CoRE,319
321,N,9,2303,GTCCTTGCAC,GTCCTT,6,0.4,CoRE,321
323,N,11,2305,GTCTACCTTC,GTCTAC,6,0.4,CoRE,323
325,N,13,2307,GTCTACTGAC,GTCTAC,6,0.4,CoRE,325
327,N,15,2309,GTCTGAGCAC,GTCTGA,6,0.4,CoRE,327
329,N,17,2311,GTCTGGAATA,GTCTGG,8,0.4,CoRE,329
331,N,19,2377,GTGAAATCAA,GTGAAA,8,0.4,CoRE,331
333,N,21,2382,GTGACATACA,GTGACA,8,0.4,CoRE,333
335,N,23,2383,GTGACCTAAC,GTGACC,8,0.4,CoRE,335
361,P,1,2391,GTGCTTAGTT,GTGCTT,4,0.4,CoRE,361
363,P,3,2401,GTGGAGTGTC,GTGGAG,4,0.4,CoRE,363
365,P,5,2432,GTGTCAATCA,GTGTCA,4,0.4,CoRE,365
367,P,7,2435,GTGTCCATAC,GTGTCC,4,0.4,CoRE,367
369,P,9,2439,GTGTGTAGAA,GTGTGT,6,0.4,CoRE,369
371,P,11,2577,GTGTTTACAT,GTGTTT,6,0.4,CoRE,371
373,P,13,2578,GTTACCACAT,GTTACC,6,0.4,CoRE,373
375,P,15,2580,GTTCAATGGC,GTTCAA,6,0.4,CoRE,375
377,P,17,2582,GTTCATCCTC,GTTCAT,8,0.4,CoRE,377
379,P,19,2593,GTTCTACAGC,GTTCTA,8,0.4,CoRE,379
381,P,21,2594,GTTGAACACA,GTTGAA,8,0.4,CoRE,381
383,P,23,2596,GTTGACCAAC,GTTGAC,8,0.4,CoRE,383
26,B,2,2613,GTTGATGGTC,GTTGAT,4,0.1,CoRE,26
28,B,4,2619,GTTGCACCAA,GTTGCA,4,0.1,CoRE,28
30,B,6,2624,GTTGCATGGT,GTTGCA,4,0.1,CoRE,30
32,B,8,2627,GTTGTAAGTG,GTTGTA,4,0.1,CoRE,32
34,B,10,2631,GTTGTATGCA,GTTGTA,6,0.1,CoRE,34
36,B,12,2649,GTTGTCCTTC,GTTGTC,6,0.1,CoRE,36
38,B,14,2654,GTTTATGACT,GTTTAT,6,0.1,CoRE,38
40,B,16,2656,GTTTCAGTGT,GTTTCA,6,0.1,CoRE,40
42,B,18,2688,GTTTCTGCAT,GTTTCT,8,0.1,CoRE,42
44,B,20,2776,TGAACTCAAG,TGAACT,8,0.1,CoRE,44
46,B,22,2777,TGAAGCAACC,TGAAGC,8,0.1,CoRE,46
48,B,24,2784,TGACCTACAG,TGACCT,8,0.1,CoRE,48
74,D,2,2786,TGACTGTCAG,TGACTG,4,0.1,CoRE,74
76,D,4,2789,TGAGAATCCC,TGAGAA,4,0.1,CoRE,76
78,D,6,2795,TGAGCATAAC,TGAGCA,4,0.1,CoRE,78
80,D,8,2797,TGAGCCTACA,TGAGCC,4,0.1,CoRE,80
82,D,10,2802,TGAGCTGTCA,TGAGCT,6,0.1,CoRE,82
84,D,12,2813,TGAGGAGGAA,TGAGGA,6,0.1,CoRE,84
86,D,14,2816,TGAGTAGCAT,TGAGTA,6,0.1,CoRE,86
88,D,16,2818,TGAGTGGTTG,TGAGTG,6,0.1,CoRE,88
90,D,18,2824,TGAGTTGTGT,TGAGTT,8,0.1,CoRE,90
92,D,20,2830,TGATCTAGTG,TGATCT,8,0.1,CoRE,92
94,D,22,2837,TGATGCTTCC,TGATGC,8,0.1,CoRE,94
96,D,24,2842,TGATGTGACC,TGATGT,8,0.1,CoRE,96
122,F,2,2844,TGATTACCTT,TGATTA,4,0.1,CoRE,122
124,F,4,2845,TGCAACTCAT,TGCAAC,4,0.1,CoRE,124
126,F,6,2860,TGCAAGATAC,TGCAAG,4,0.1,CoRE,126
128,F,8,2869,TGCAGACACC,TGCAGA,4,0.1,CoRE,128
130,F,10,2870,TGCAGAGGAT,TGCAGA,6,0.1,CoRE,130
132,F,12,2873,TGCAGTGGTA,TGCAGT,6,0.1,CoRE,132
134,F,14,2884,TGCCTCAGAT,TGCCTC,6,0.1,CoRE,134
136,F,16,2887,TGCTAGTAAC,TGCTAG,6,0.1,CoRE,136
138,F,18,2888,TGCTCTATTC,TGCTCT,8,0.1,CoRE,138
140,F,20,2889,TGCTTCACTT,TGCTTC,8,0.1,CoRE,140
142,F,22,2899,TGGATTAGAC,TGGATT,8,0.1,CoRE,142
144,F,24,2902,TGGCATTCAC,TGGCAT,8,0.1,CoRE,144
170,H,2,2904,TGGCTCAAGG,TGGCTC,4,0.2,CoRE,170
172,H,4,2905,TGGTTAGGCA,TGGTTA,4,0.2,CoRE,172
174,H,6,2909,TGTAAACTGT,TGTAAA,4,0.2,CoRE,174
176,H,8,2911,TGTAATCCAT,TGTAAT,4,0.2,CoRE,176
178,H,10,2915,TGTACCCATC,TGTACC,6,0.2,CoRE,178
180,H,12,2921,TGTACTCACT,TGTACT,6,0.2,CoRE,180
182,H,14,2922,TGTAGAGTCC,TGTAGA,6,0.2,CoRE,182
184,H,16,2940,TGTCAGGCAC,TGTCAG,6,0.2,CoRE,184
186,H,18,2942,TGTCCATCAG,TGTCCA,8,0.2,CoRE,186
188,H,20,2943,TGTCCCACTC,TGTCCC,8,0.2,CoRE,188
190,H,22,2947,TGTCTCATCC,TGTCTC,8,0.2,CoRE,190
192,H,24,2950,TGTGACACTT,TGTGAC,8,0.2,CoRE,192
218,J,2,2956,TGTGAGGACT,TGTGAG,4,0.2,CoRE,218
220,J,4,2958,TGTGAGTTTC,TGTGAG,4,0.2,CoRE,220
222,J,6,2960,TGTGATACCC,TGTGAT,4,0.2,CoRE,222
224,J,8,2967,TGTGCAGTTG,TGTGCA,4,0.2,CoRE,224
226,J,10,2968,TGTGCTAAAC,TGTGCT,6,0.2,CoRE,226
228,J,12,2990,TGTGTGTAAC,TGTGTG,6,0.2,CoRE,228
230,J,14,2993,TGTTCAAGCA,TGTTCA,6,0.2,CoRE,230
232,J,16,2998,TGTTCACTAG,TGTTCA,6,0.2,CoRE,232
234,J,18,3001,TGTTCCAGAC,TGTTCC,8,0.2,CoRE,234
236,J,20,3004,TTAACTGTCC,TTAACT,8,0.2,CoRE,236
238,J,22,3009,TTAAGAGGAC,TTAAGA,8,0.2,CoRE,238
240,J,24,3012,TTACTAAGCA,TTACTA,8,0.2,CoRE,240
266,L,2,3016,TTACTACTAG,TTACTA,4,0.4,CoRE,266
268,L,4,3017,TTACTATGTG,TTACTA,4,0.4,CoRE,268
270,L,6,3023,TTAGGTGTTG,TTAGGT,4,0.4,CoRE,270
272,L,8,3030,TTATCCATCC,TTATCC,4,0.4,CoRE,272
274,L,10,3032,TTATGGTGGT,TTATGG,6,0.4,CoRE,274
276,L,12,3044,TTATGTAGCA,TTATGT,6,0.4,CoRE,276
278,L,14,3045,TTATGTTGTG,TTATGT,6,0.4,CoRE,278
280,L,16,3046,TTATTCACTC,TTATTC,6,0.4,CoRE,280
282,L,18,3048,TTCAGTAATC,TTCAGT,8,0.4,CoRE,282
284,L,20,3049,TTCCTCATAG,TTCCTC,8,0.4,CoRE,284
286,L,22,3050,TTCTCACTCC,TTCTCA,8,0.4,CoRE,286
288,L,24,3061,TTCTCCTGTA,TTCTCC,8,0.4,CoRE,288
314,N,2,3062,TTCTGTGACT,TTCTGT,4,0.4,CoRE,314
316,N,4,3063,TTCTTACCTC,TTCTTA,4,0.4,CoRE,316
318,N,6,3071,TTGACATCTC,TTGACA,4,0.4,CoRE,318
320,N,8,3074,TTGACCACAG,TTGACC,4,0.4,CoRE,320
322,N,10,3076,TTGATATTCC,TTGATA,6,0.4,CoRE,322
324,N,12,3590,TTGCCTGGTG,TTGCCT,6,0.4,CoRE,324
326,N,14,3592,TTGTGGCATC,TTGTGG,6,0.4,CoRE,326
328,N,16,3606,TTTGGAGTCA,TTTGGA,6,0.4,CoRE,328
330,N,18,3614,AAACATCTCA,AAACAT,8,0.4,CoRE,330
332,N,20,3618,AAACTACACT,AAACTA,8,0.4,CoRE,332
334,N,22,3622,AAAGTACCAC,AAAGTA,8,0.4,CoRE,334
336,N,24,3626,AAATATGAGC,AAATAT,8,0.4,CoRE,336
362,P,2,3629,AAATCAGTCC,AAATCA,4,0.4,CoRE,362
364,P,4,3631,AAATGCCATC,AAATGC,4,0.4,CoRE,364
366,P,6,3632,AAATGTCACT,AAATGT,4,0.4,CoRE,366
368,P,8,3636,AAGATTAACC,AAGATT,4,0.4,CoRE,368
370,P,10,3637,AAGGTTCAAT,AAGGTT,6,0.4,CoRE,370
372,P,12,3639,AGAAATCCAA,AGAAAT,6,0.4,CoRE,372
374,P,14,3641,AGAAATTGGT,AGAAAT,6,0.4,CoRE,374
376,P,16,3646,GGTGTAATTT,GGTGTA,6,0.4,CoRE,376
378,P,18,3651,TGATTTCCAA,TGATTT,8,0.4,CoRE,378
380,P,20,3655,TTCCAATAAC,TTCCAA,8,0.4,CoRE,380
382,P,22,3658,CAGGAATTTG,CAGGAA,8,0.4,CoRE,382
384,P,24,3662,CCTTAACAAC,CCTTAA,8,0.4,CoRE,384
